debug/simulation/qsim/KBDINTF.msim.vcd
$comment
	File created using the following command:
		vcd file KBDINTF.msim.vcd -direction
$end
$date
	Sat May 12 21:47:13 2018
$end
$version
	ModelSim Version 10.5b
$end
$timescale
	1ps
$end

$scope module num_lock_vhd_vec_tst $end
$var wire 1 ! break $end
$var wire 1 " clk $end
$var wire 1 # din [8] $end
$var wire 1 $ din [7] $end
$var wire 1 % din [6] $end
$var wire 1 & din [5] $end
$var wire 1 ' din [4] $end
$var wire 1 ( din [3] $end
$var wire 1 ) din [2] $end
$var wire 1 * din [1] $end
$var wire 1 + din [0] $end
$var wire 1 , dout $end
$var wire 1 - key_code [8] $end
$var wire 1 . key_code [7] $end
$var wire 1 / key_code [6] $end
$var wire 1 0 key_code [5] $end
$var wire 1 1 key_code [4] $end
$var wire 1 2 key_code [3] $end
$var wire 1 3 key_code [2] $end
$var wire 1 4 key_code [1] $end
$var wire 1 5 key_code [0] $end
$var wire 1 6 make $end
$var wire 1 7 resetN $end

$scope module i1 $end
$var wire 1 8 gnd $end
$var wire 1 9 vcc $end
$var wire 1 : unknown $end
$var wire 1 ; devoe $end
$var wire 1 < devclrn $end
$var wire 1 = devpor $end
$var wire 1 > ww_devoe $end
$var wire 1 ? ww_devclrn $end
$var wire 1 @ ww_devpor $end
$var wire 1 A ww_resetN $end
$var wire 1 B ww_clk $end
$var wire 1 C ww_din [8] $end
$var wire 1 D ww_din [7] $end
$var wire 1 E ww_din [6] $end
$var wire 1 F ww_din [5] $end
$var wire 1 G ww_din [4] $end
$var wire 1 H ww_din [3] $end
$var wire 1 I ww_din [2] $end
$var wire 1 J ww_din [1] $end
$var wire 1 K ww_din [0] $end
$var wire 1 L ww_key_code [8] $end
$var wire 1 M ww_key_code [7] $end
$var wire 1 N ww_key_code [6] $end
$var wire 1 O ww_key_code [5] $end
$var wire 1 P ww_key_code [4] $end
$var wire 1 Q ww_key_code [3] $end
$var wire 1 R ww_key_code [2] $end
$var wire 1 S ww_key_code [1] $end
$var wire 1 T ww_key_code [0] $end
$var wire 1 U ww_make $end
$var wire 1 V ww_break $end
$var wire 1 W ww_dout $end
$var wire 1 X \dout~output_o\ $end
$var wire 1 Y \clk~input_o\ $end
$var wire 1 Z \make~input_o\ $end
$var wire 1 [ \din[6]~input_o\ $end
$var wire 1 \ \key_code[6]~input_o\ $end
$var wire 1 ] \din[7]~input_o\ $end
$var wire 1 ^ \key_code[7]~input_o\ $end
$var wire 1 _ \din[8]~input_o\ $end
$var wire 1 ` \key_code[8]~input_o\ $end
$var wire 1 a \Equal0~0_combout\ $end
$var wire 1 b \din[0]~input_o\ $end
$var wire 1 c \key_code[0]~input_o\ $end
$var wire 1 d \din[1]~input_o\ $end
$var wire 1 e \key_code[1]~input_o\ $end
$var wire 1 f \din[2]~input_o\ $end
$var wire 1 g \key_code[2]~input_o\ $end
$var wire 1 h \Equal0~1_combout\ $end
$var wire 1 i \din[3]~input_o\ $end
$var wire 1 j \key_code[3]~input_o\ $end
$var wire 1 k \din[4]~input_o\ $end
$var wire 1 l \key_code[4]~input_o\ $end
$var wire 1 m \din[5]~input_o\ $end
$var wire 1 n \key_code[5]~input_o\ $end
$var wire 1 o \Equal0~2_combout\ $end
$var wire 1 p \break~input_o\ $end
$var wire 1 q \pr_state~0_combout\ $end
$var wire 1 r \resetN~input_o\ $end
$var wire 1 s \pr_state~q\ $end
$var wire 1 t \out_led~0_combout\ $end
$var wire 1 u \out_led~q\ $end
$var wire 1 v \ALT_INV_break~input_o\ $end
$var wire 1 w \ALT_INV_key_code[5]~input_o\ $end
$var wire 1 x \ALT_INV_din[5]~input_o\ $end
$var wire 1 y \ALT_INV_key_code[4]~input_o\ $end
$var wire 1 z \ALT_INV_din[4]~input_o\ $end
$var wire 1 { \ALT_INV_key_code[3]~input_o\ $end
$var wire 1 | \ALT_INV_key_code[1]~input_o\ $end
$var wire 1 } \ALT_INV_din[2]~input_o\ $end
$var wire 1 ~ \ALT_INV_out_led~q\ $end
$var wire 1 !! \ALT_INV_pr_state~q\ $end
$var wire 1 "! \ALT_INV_Equal0~0_combout\ $end
$var wire 1 #! \ALT_INV_Equal0~1_combout\ $end
$var wire 1 $! \ALT_INV_Equal0~2_combout\ $end
$var wire 1 %! \ALT_INV_make~input_o\ $end
$var wire 1 &! \ALT_INV_key_code[2]~input_o\ $end
$var wire 1 '! \ALT_INV_din[3]~input_o\ $end
$var wire 1 (! \ALT_INV_din[6]~input_o\ $end
$var wire 1 )! \ALT_INV_key_code[6]~input_o\ $end
$var wire 1 *! \ALT_INV_din[7]~input_o\ $end
$var wire 1 +! \ALT_INV_key_code[7]~input_o\ $end
$var wire 1 ,! \ALT_INV_din[8]~input_o\ $end
$var wire 1 -! \ALT_INV_key_code[8]~input_o\ $end
$var wire 1 .! \ALT_INV_din[0]~input_o\ $end
$var wire 1 /! \ALT_INV_key_code[0]~input_o\ $end
$var wire 1 0! \ALT_INV_din[1]~input_o\ $end
$upscope $end
$upscope $end
$enddefinitions $end
#0
$dumpvars
0!
0"
0,
16
07
08
19
x:
1;
1<
1=
1>
1?
1@
0A
0B
1U
0V
0W
0X
0Y
1Z
1[
1\
0]
0^
0_
0`
1a
1b
1c
1d
1e
1f
1g
1h
0i
0j
1k
1l
1m
1n
1o
0p
1q
0r
0s
1t
0u
1v
0w
0x
0y
0z
1{
0|
0}
1~
1!!
0"!
0#!
0$!
0%!
0&!
1'!
0(!
0)!
1*!
1+!
1,!
1-!
0.!
0/!
00!
0#
0$
1%
1&
1'
0(
1)
1*
1+
0-
0.
1/
10
11
02
13
14
15
0C
0D
1E
1F
1G
0H
1I
1J
1K
0L
0M
1N
1O
1P
0Q
1R
1S
1T
$end
#10000
1"
1B
1Y
#20000
0"
06
1!
0B
0U
1V
1p
0Z
0Y
1%!
0v
0q
0t
#30000
1"
1B
1Y
#40000
0"
16
0!
0B
1U
0V
0p
1Z
0Y
0%!
1v
1q
1t
#50000
1"
1B
1Y
#60000
0"
06
1!
17
0B
0U
1V
1A
1r
1p
0Z
0Y
1%!
0v
0q
0t
#70000
1"
1B
1Y
#80000
0"
16
0!
0B
1U
0V
0p
1Z
0Y
0%!
1v
1q
1t
#90000
1"
1B
1Y
1s
1u
0~
0!!
1X
1W
1,
#100000
0"
06
1!
0B
0U
1V
1p
0Z
0Y
1%!
0v
0q
#110000
1"
1B
1Y
0s
1!!
#120000
0"
16
0!
0B
1U
0V
0p
1Z
0Y
0%!
1v
1q
0t
#130000
1"
1B
1Y
1s
0u
1~
0!!
0X
0W
0,
#140000
0"
06
1!
0B
0U
1V
1p
0Z
0Y
1%!
0v
0q
#150000
1"
1B
1Y
0s
1!!
#160000
0"
16
0!
0B
1U
0V
0p
1Z
0Y
0%!
1v
1q
1t
#170000
1"
1B
1Y
1s
1u
0~
0!!
1X
1W
1,
#180000
0"
06
1!
0B
0U
1V
1p
0Z
0Y
1%!
0v
0q
#190000
1"
1B
1Y
0s
1!!
#200000
0"
16
0!
0B
1U
0V
0p
1Z
0Y
0%!
1v
1q
0t
#210000
1"
1B
1Y
1s
0u
1~
0!!
0X
0W
0,
#220000
0"
06
1!
0B
0U
1V
1p
0Z
0Y
1%!
0v
0q
#230000
1"
1B
1Y
0s
1!!
#240000
0"
16
0!
0B
1U
0V
0p
1Z
0Y
0%!
1v
1q
1t
#250000
1"
1B
1Y
1s
1u
0~
0!!
1X
1W
1,
#260000
0"
06
1!
0B
0U
1V
1p
0Z
0Y
1%!
0v
0q
#270000
1"
1B
1Y
0s
1!!
#280000
0"
16
0!
0B
1U
0V
0p
1Z
0Y
0%!
1v
1q
0t
#290000
1"
1B
1Y
1s
0u
1~
0!!
0X
0W
0,
#300000
0"
06
1!
0B
0U
1V
1p
0Z
0Y
1%!
0v
0q
#310000
1"
1B
1Y
0s
1!!
#320000
0"
16
0!
0B
1U
0V
0p
1Z
0Y
0%!
1v
1q
1t
#330000
1"
1B
1Y
1s
1u
0~
0!!
1X
1W
1,
#340000
0"
06
1!
0B
0U
1V
1p
0Z
0Y
1%!
0v
0q
#350000
1"
1B
1Y
0s
1!!
#360000
0"
16
0!
0B
1U
0V
0p
1Z
0Y
0%!
1v
1q
0t
#370000
1"
1B
1Y
1s
0u
1~
0!!
0X
0W
0,
#380000
0"
06
1!
0B
0U
1V
1p
0Z
0Y
1%!
0v
0q
#390000
1"
1B
1Y
0s
1!!
#400000
0"
16
0!
0B
1U
0V
0p
1Z
0Y
0%!
1v
1q
1t
#410000
1"
1B
1Y
1s
1u
0~
0!!
1X
1W
1,
#420000
0"
06
1!
0B
0U
1V
1p
0Z
0Y
1%!
0v
0q
#430000
1"
1B
1Y
0s
1!!
#440000
0"
16
0!
0B
1U
0V
0p
1Z
0Y
0%!
1v
1q
0t
#450000
1"
1B
1Y
1s
0u
1~
0!!
0X
0W
0,
#460000
0"
06
1!
0B
0U
1V
1p
0Z
0Y
1%!
0v
0q
#470000
1"
1B
1Y
0s
1!!
#480000
0"
16
0!
0B
1U
0V
0p
1Z
0Y
0%!
1v
1q
1t
#490000
1"
1B
1Y
1s
1u
0~
0!!
1X
1W
1,
#500000
0"
06
1!
0B
0U
1V
1p
0Z
0Y
1%!
0v
0q
#510000
1"
1B
1Y
0s
1!!
#520000
0"
16
0!
0B
1U
0V
0p
1Z
0Y
0%!
1v
1q
0t
#530000
1"
1B
1Y
1s
0u
1~
0!!
0X
0W
0,
#540000
0"
06
1!
0B
0U
1V
1p
0Z
0Y
1%!
0v
0q
#550000
1"
1B
1Y
0s
1!!
#560000
0"
16
0!
0B
1U
0V
0p
1Z
0Y
0%!
1v
1q
1t
#570000
1"
1B
1Y
1s
1u
0~
0!!
1X
1W
1,
#580000
0"
06
1!
0B
0U
1V
1p
0Z
0Y
1%!
0v
0q
#590000
1"
1B
1Y
0s
1!!
#600000
0"
16
0!
0B
1U
0V
0p
1Z
0Y
0%!
1v
1q
0t
#610000
1"
1B
1Y
1s
0u
1~
0!!
0X
0W
0,
#620000
0"
06
1!
0B
0U
1V
1p
0Z
0Y
1%!
0v
0q
#630000
1"
1B
1Y
0s
1!!
#640000
0"
16
0!
0%
0&
0'
0)
0*
0+
0B
1U
0V
0K
0J
0I
0G
0F
0E
0[
0m
0k
0f
0d
0b
0p
1Z
0Y
0%!
1v
1.!
10!
1}
1z
1x
1(!
0a
0o
0h
1q
1t
1#!
1$!
1"!
0q
0t
#650000
1"
1B
1Y
#660000
0"
06
1!
0B
0U
1V
1p
0Z
0Y
1%!
0v
#670000
1"
1B
1Y
#680000
0"
16
0!
0B
1U
0V
0p
1Z
0Y
0%!
1v
#690000
1"
1B
1Y
#700000
0"
06
1!
0B
0U
1V
1p
0Z
0Y
1%!
0v
#710000
1"
1B
1Y
#720000
0"
16
0!
0B
1U
0V
0p
1Z
0Y
0%!
1v
#730000
1"
1B
1Y
#740000
0"
06
1!
0B
0U
1V
1p
0Z
0Y
1%!
0v
#750000
1"
1B
1Y
#760000
0"
16
0!
0B
1U
0V
0p
1Z
0Y
0%!
1v
#770000
1"
1B
1Y
#780000
0"
06
1!
0B
0U
1V
1p
0Z
0Y
1%!
0v
#790000
1"
1B
1Y
#800000
0"
16
0!
0B
1U
0V
0p
1Z
0Y
0%!
1v
#810000
1"
1B
1Y
#820000
0"
06
1!
0B
0U
1V
1p
0Z
0Y
1%!
0v
#830000
1"
1B
1Y
#840000
0"
16
0!
0B
1U
0V
0p
1Z
0Y
0%!
1v
#850000
1"
1B
1Y
#860000
0"
06
1!
0B
0U
1V
1p
0Z
0Y
1%!
0v
#870000
1"
1B
1Y
#880000
0"
16
0!
0B
1U
0V
0p
1Z
0Y
0%!
1v
#890000
1"
1B
1Y
#900000
0"
06
1!
0B
0U
1V
1p
0Z
0Y
1%!
0v
#910000
1"
1B
1Y
#920000
0"
16
0!
0B
1U
0V
0p
1Z
0Y
0%!
1v
#930000
1"
1B
1Y
#940000
0"
06
1!
0B
0U
1V
1p
0Z
0Y
1%!
0v
#950000
1"
1B
1Y
#960000
0"
16
0!
0B
1U
0V
0p
1Z
0Y
0%!
1v
#970000
1"
1B
1Y
#980000
0"
06
1!
0B
0U
1V
1p
0Z
0Y
1%!
0v
#990000
1"
1%
1&
1'
1)
1*
1+
1B
1K
1J
1I
1G
1F
1E
1[
1m
1k
1f
1d
1b
1Y
0.!
00!
0}
0z
0x
0(!
1a
1o
1h
0#!
0$!
0"!
